…
``` r
cleaned_noaa_data = ny_noaa %>%
  separate(date, c("year", "month", "day"), sep = "-") %>% 
  mutate(prcp = prcp*10, tmax = as.numeric(tmax), tmin = as.numeric(tmin))

#summarize(cleaned_noaa_data, mean(tmax, na.rm = TRUE))
  
  #mode snowfall 
cleaned_noaa_data %>%
  mutate(chr_snw = as.character(snow)) %>%
  count(chr_snw) %>%
  arrange(desc(n))
```

    ## # A tibble: 282 x 2
    ##    chr_snw       n
    ##    <chr>     <int>
    ##  1 0       2008508
    ##  2 <NA>     381221
    ##  3 25        31022
    ##  4 13        23095
    ##  5 51        18274
    ##  6 76        10173
    ##  7 8          9962
    ##  8 5          9748
    ##  9 38         9197
    ## 10 3          8790
    ## # ... with 272 more rows
…
